focus_tree = {
id = israel_alt_focus
country = {
factor = 0
modifier = {
add = 10
tag = ISR
}
}

continuous_focus_position = { x = 50 y = 830 }

default = yes
reset_on_civilwar = yes

#Focus for Expand Haifa Harbor
focus = {
id = ISR_expandhaifaharbor
icon = naval_dockyard
x = 0
y = 2
cost = 10
available_if_capitulated = yes
prerequisite = { focus = ISR_developtamargasfield }
ai_will_do = {
 factor = 1
 }
completion_reward = {
204 = {
				add_building_construction = {
					type = infrastructure
					level = 1
					instant_build = yes
				}
				add_building_construction = {
					type = dockyard
					level = 1
					instant_build = yes
				}
				add_building_construction = {
					type = naval_base
					level = 2
					instant_build = yes
					province = 1065
				}
			}
 }

 }

#Focus for Renew Peace Talks
focus = {
id = ISR_renewpeacetalks
icon = race_relations2
x = 8
y = 0
cost = 10
available_if_capitulated = yes
mutually_exclusive = { focus = ISR_compromisehasfailed }
ai_will_do = {
 factor = 0
 }
completion_reward = {
			add_stability = -0.05
			every_country = {
				limit = { OR = { original_tag = PAL original_tag = Jor original_tag = EGY original_tag = LEB original_tag = SYR } }
				add_opinion_modifier = {
					target = ISR
					modifier = political_outreach
				}
			}
		}


 }

#Focus for Compromise has Failed
focus = {
id = ISR_compromisehasfailed
icon = aggressive_diplomacy
x = 15
y = 0
cost = 10
available_if_capitulated = yes
mutually_exclusive = { focus = ISR_renewpeacetalks }
ai_will_do = {
 factor = 10
 }
completion_reward = {
add_popularity= {
ideology = nationalist
popularity = 0.1
}
 }

 }

#Focus for Pursue Regional Partnerships
focus = {
id = ISR_pursueregionalpartnerships
icon = concessions
x = 7
y = 1
cost = 10
available_if_capitulated = yes
prerequisite = { focus = ISR_renewpeacetalks }
ai_will_do = {
 factor = 1
 }
completion_reward = {
if = { limit = { NOT = { has_war_with = TUR } }
				TUR = {
					add_opinion_modifier = {
						target = ISR
						modifier = diplomatic_proximity
					}
				}
			}
			if = { limit = { NOT = { has_war_with = SAU } }
				SAU = {
					add_opinion_modifier = {
						target = ISR
						modifier = diplomatic_proximity
					}
				}
			}
			if = { limit = { NOT = { has_war_with = SYR } }
				SYR = {
					add_opinion_modifier = {
						target = ISR
						modifier = diplomatic_proximity
					}
				}
			}
 }

 }

#Focus for Cede Yerushalayim
focus = {
id = ISR_cedeyerushalayim
icon = deadly_deal
x = 9
y = 2
cost = 10
available_if_capitulated = yes
prerequisite = { focus = ISR_historicalreassessment }
available = {
has_government= communism
 }
completion_reward = {
PAL = {transfer_state = 207}
 }
}


#Focus for Insist on Pragmatism
focus = {
id = ISR_insistonpragmatism
icon = democracy
x = 13
y = 1
cost = 10
available_if_capitulated = yes
prerequisite = { focus = ISR_renewpeacetalks }
mutually_exclusive = { focus = ISR_historicalreassessment }
ai_will_do = {
 factor = 1
 }
completion_reward = {
add_political_power= 150
 }

 }

#Focus for Historical Reassessment
focus = {
id = ISR_historicalreassessment
icon = communism2
x = 9
y = 1
cost = 10
available_if_capitulated = yes
prerequisite = { focus = ISR_renewpeacetalks }
mutually_exclusive = { focus = ISR_insistonpragmatism }
ai_will_do = {
 factor = 0
 }
completion_reward = {
add_popularity= {
ideology = communism
popularity = 0.1
}
add_stability= -0.05
 }

 }

#Focus for Charedi Relocation
focus = {
id = ISR_charedirelocation
icon = become_puppet
x = 9
y = 3
cost = 10
available_if_capitulated = yes
prerequisite = { focus = ISR_cedeyerushalayim }
ai_will_do = {
 factor = 0
 }
completion_reward = {
random_owned_controlled_state={
 limit = {
 free_building_slots = {
 building = industrial_complex
 size > 0
 include_locked = yes
 }

 }

 add_extra_state_shared_building_slots = 1
 add_building_construction = {
 type = industrial_complex
 level = 1
 instant_build = yes
 }

 set_state_flag = REPLACE_ME_WITH_UNIQUE_IDENTIFIER
 }
 }

 }

#Focus for Attract Foreign Investors
focus = {
id = ISR_attractforeigninvestors
icon = money
x = 7
y = 2
cost = 10
available_if_capitulated = yes
prerequisite = { focus = ISR_pursueregionalpartnerships }
ai_will_do = {
 factor = 1
 }
completion_reward = {
if = {
				limit = {
					any_owned_state = { has_resources_amount = { resource = oil amount > 0 } }
				}
				random_owned_state = {
					limit = { has_resources_amount = { resource = oil amount > 0 } }
					add_resource = { type = oil amount = 2 }
				}
			}
			if = {
				limit = {
					any_owned_state = { has_resources_amount = { resource = steel amount > 0 } }
				}
				random_owned_state = {
					limit = { has_resources_amount = { resource = steel amount > 0 } }
					add_resource = { type = steel amount = 2 }
				}
			}
			if = {
				limit = {
					any_owned_state = { has_resources_amount = { resource = aluminium amount > 0 } }
				}
				random_owned_state = {
					limit = { has_resources_amount = { resource = aluminium amount > 0 } }
					add_resource = { type = aluminium amount = 2 }
				}
			}
			if = {
				limit = {
					any_owned_state = { has_resources_amount = { resource = tungsten amount > 0 } }
				}
				random_owned_state = {
					limit = { has_resources_amount = { resource = tungsten amount > 0 } }
					add_resource = { type = tungsten amount = 2 }
				}
			}
			if = {
				limit = {
					all_owned_state = { has_resources_amount = { resource = oil amount < 1 } }
					all_owned_state = { has_resources_amount = { resource = steel amount < 1 } }
					all_owned_state = { has_resources_amount = { resource = aluminium amount < 1 } }
					all_owned_state = { has_resources_amount = { resource = tungsten amount < 1 } }
				}
				capital_scope = { add_resource = { type = steel amount = 1 } }
			}
 }

 }

#Focus for Develop Tamar Gas Field
focus = {
id = ISR_developtamargasfield
icon = oil_production
x = 0
y = 1
cost = 10
available_if_capitulated = yes
prerequisite = { focus = ISR_expandroute6 }
ai_will_do = {
 factor = 2
 }
completion_reward = {
add_resource= {
type = oil
amount = 20
state = 204
}
 }

 }

#Focus for Expand Route 6
focus = {
id = ISR_expandroute6
icon = production2
x = 0
y = 0
cost = 10
available_if_capitulated = yes
ai_will_do = {
 factor = 2
 }
completion_reward = {
204 = {
					add_building_construction = {
						type = infrastructure
						level = 1
						instant_build = yes
					}
				}
206 = {
					add_building_construction = {
						type = infrastructure
						level = 1
						instant_build = yes
					}
				}
 }

 }

#Focus for Bnei Brak Investment
focus = {
id = ISR_bneibrakinvestment
icon = industry
x = 2
y = 1
cost = 10
available_if_capitulated = yes
prerequisite = { focus = ISR_expandroute6 }
prerequisite = { focus = ISR_desalinationplants }
ai_will_do = {
 factor = 2
 }
completion_reward = {
204 = {
add_extra_state_shared_building_slots = 2
add_building_construction = {
  type = industrial_complex
  level = 2
  instant_build = yes
}
 }
 }

 }

#Focus for Desalination Plants
focus = {
id = ISR_desalinationplants
icon = agriculture
x = 2
y = 0
cost = 10
available_if_capitulated = yes
ai_will_do = {
 factor = 2
 }
completion_reward = {
add_ideas= ISR_desal_plants
 }

 }

#Focus for Convertable Currency
focus = {
id = ISR_convertablecurrency
icon = money
x = 4
y = 0
cost = 10
available_if_capitulated = yes
ai_will_do = {
 factor = 2
 }
completion_reward = {
add_ideas = idea_focus_generic_public_service_investment
 }

 }

#Focus for Bolster Ramat Gan
focus = {
id = ISR_bolsterramatgan
icon = construction
x = 4
y = 1
cost = 10
available_if_capitulated = yes
prerequisite = { focus = ISR_convertablecurrency }
ai_will_do = {
 factor = 2
 }
completion_reward = {
add_political_power= 100
 }

 }

#Focus for Expand Ashdod Industry
focus = {
id = ISR_expandashdodindustry
icon = construction3
x = 0
y = 3
cost = 10
available_if_capitulated = yes
prerequisite = { focus = ISR_expandhaifaharbor }
ai_will_do = {
 factor = 2
 }
completion_reward = {
206 = {
				add_building_construction = {
					type = infrastructure
					level = 1
					instant_build = yes
				}
				add_building_construction = {
					type = dockyard
					level = 1
					instant_build = yes
				}
				add_building_construction = {
					type = naval_base
					level = 2
					instant_build = yes
					province = 4088
				}
			}
 }

 }

#Focus for Diamond Industry
focus = {
id = ISR_diamondindustry
icon = consumer_goods
x = 4
y = 2
cost = 10
available_if_capitulated = yes
prerequisite = { focus = ISR_bolsterramatgan }
ai_will_do = {
 factor = 2
 }
completion_reward = {
add_ideas= ISR_diamonds
 }

 }

#Focus for Weizmann Institute
focus = {
id = ISR_weizmanninstitute
icon = research
x = 2
y = 2
cost = 10
available_if_capitulated = yes
prerequisite = { focus = ISR_bneibrakinvestment }
prerequisite = { focus = ISR_bolsterramatgan }
ai_will_do = {
 factor = 10
 }
completion_reward = {
add_research_slot= 2
if = {
	limit = { has_idea = scientific_advances }
	swap_ideas = {
		remove_idea = scientific_advances
    add_idea = scientific_advances2
	}
	else = {
		add_ideas = scientific_advances
	}
}
 }

 }

#Focus for Synthetic Materials Research
focus = {
id = ISR_syntheticmaterialsresearch
icon = steel_production2
x = 4
y = 3
cost = 10
available_if_capitulated = yes
prerequisite = { focus = ISR_diamondindustry }
prerequisite = { focus = ISR_weizmanninstitute }
ai_will_do = {
 factor = 5
 }
completion_reward = {
206 = {
				add_resource = {
					type = steel
					amount = 6
				}

add_resource = {
					type = aluminium
					amount = 6
				}
add_resource = {
					type = tungsten
					amount = 6
				}

			}
 }

 }

#Focus for Judea to the Judeans
focus = {
id = ISR_judeatothejudeans
icon = forceful_treaty
x = 15
y = 1
cost = 10
available_if_capitulated = yes
prerequisite = { focus = ISR_compromisehasfailed }
ai_will_do = {
 factor = 10
 }
completion_reward = {
add_state_claim= 208
add_state_claim = 209
add_popularity = {
				ideology = nationalist
				popularity = 0.05
			}
			recalculate_party = yes
 }

 }

#Focus for Let's see what Hamas Says
focus = {
id = ISR_letsseewhathamassays
icon = terrorism
x = 13
y = 2
cost = 10
available_if_capitulated = yes
prerequisite = { focus = ISR_insistonpragmatism focus = ISR_assertjewishindigeneity }
ai_will_do = {
 factor = 1
 }
completion_reward = {
add_war_support= 5
add_popularity= {
ideology = democratic
popularity = 0.1
}
 }

 }

#Focus for Safeguarding our Future
focus = {
id = ISR_safeguardingourfuture
icon = fascism
x = 15
y = 2
cost = 10
available_if_capitulated = yes
prerequisite = { focus = ISR_judeatothejudeans }
mutually_exclusive = { focus = ISR_restorethedavidickingdom }
ai_will_do = {
 factor = 10
 }
completion_reward = {
add_stability= 0.05
add_popularity= {
ideology = nationalist
popularity = 0.1
}
add_to_variable = { var = party_pop_array^21 value = 0.25 }
add_to_variable = { var = party_pop_array^22 value = 0.25 }
recalculate_party = yes
 }

 }

#Focus for Restore the Davidic Kingdom
focus = {
id = ISR_restorethedavidickingdom
icon = monarchism
x = 17
y = 2
cost = 10
available_if_capitulated = yes
prerequisite = { focus = ISR_judeatothejudeans }
mutually_exclusive = { focus = ISR_safeguardingourfuture }
ai_will_do = {
 factor = 10
 }
completion_reward = {
add_popularity= {
ideology = nationalist
popularity = 0.1
}
add_political_power= 150
add_to_variable = { var = party_pop_array^23 value = 0.5 }
recalculate_party = yes
 }

 }

#Focus for Court the Charedim
focus = {
id = ISR_courtthecharedim
icon = tripartite_pact
x = 16
y = 3
cost = 10
available_if_capitulated = yes
prerequisite = { focus = ISR_safeguardingourfuture focus = ISR_restorethedavidickingdom }
ai_will_do = {
 factor = 10
 }
completion_reward = {
add_political_power= 50
add_popularity= {
ideology = nationalist
popularity = 0.05
}
recalculate_party = yes
 }

 }

#Focus for Fund Settlements
focus = {
id = ISR_fundsettlements
icon = war2
x = 14
y = 3
cost = 10
available_if_capitulated = yes
prerequisite = { focus = ISR_letsseewhathamassays focus = ISR_safeguardingourfuture }
mutually_exclusive = { focus = ISR_enforcethegreenline }
ai_will_do = {
 factor = 10
 }
completion_reward = {
add_political_power= 150


PAL = {
				add_opinion_modifier = {
					target = ISR
					modifier = minor_sanctions_relations
				}
			}
  add_to_variable = { var = party_pop_array^0 value = 0.10 }
  recalculate_party = yes
 }

 }

#Focus for Empower Batte Din
focus = {
id = ISR_empowerbattedin
icon = neutrality
x = 18
y = 4
cost = 10
available_if_capitulated = yes
prerequisite = { focus = ISR_courtthecharedim }
prerequisite = { focus = ISR_restorethedavidickingdom }
ai_will_do = {
 factor = 10
 }
completion_reward = {
add_popularity= {
ideology = nationalist
popularity = 0.1
}
add_stability= 0.05
add_to_variable = { var = party_pop_array^21 value = -0.05 }
add_to_variable = { var = party_pop_array^22 value = -0.05 }
 }

 }

#Focus for Annex Palestine
focus = {
id = ISR_annexpalestine
icon = war
x = 15
y = 5
cost = 10
mutually_exclusive = { focus = ISR_stabilizepalestinianauthority }
available_if_capitulated = yes
prerequisite = { focus = ISR_empowerbattedin focus = ISR_fundsettlements }
ai_will_do = {
 factor = 10
 }
completion_reward = {
annex_country= {
 target = PAL
}
add_threat = 7
 }

 }

#Focus for Provoke Intifada
focus = {
id = ISR_provokeintifada
icon = cryptologic_bomb
x = 13
y = 4
cost = 10
available_if_capitulated = yes
prerequisite = { focus = ISR_fundsettlements focus = ISR_enforcethegreenline }
ai_will_do = {
 factor = 1
 }
completion_reward = {
207 = {set_border_war= yes}
 }

 }

#Focus for Enforce the Green Line
focus = {
id = ISR_enforcethegreenline
icon = dangerous_laws
x = 12
y = 3
cost = 10
available_if_capitulated = yes
prerequisite = { focus = ISR_letsseewhathamassays }
mutually_exclusive = { focus = ISR_fundsettlements }
ai_will_do = {
 factor = 0
 }
completion_reward = {
add_political_power= -200
207={remove_claim_by= PAL}
 }

 }

#Focus for Tehillim 137:5
focus = {
id = ISR_tehillim1375
icon = dangerous_laws
x = 15
y = 6
cost = 10
available_if_capitulated = yes
prerequisite = { focus = ISR_annexpalestine }
ai_will_do = {
 factor = 5
 }
completion_reward = {
add_state_claim= 210
add_state_claim= 211
add_state_claim= 212
create_wargoal = {
type = annex_everything target = JOR
}
 }

 }

#Focus for Assert Jewish Indigeneity
focus = {
id = ISR_assertjewishindigeneity
icon = demand_territory
x = 11
y = 2
cost = 10
available_if_capitulated = yes
ai_will_do = {
 factor = 1
 }
completion_reward = {
add_popularity= {
ideology = communism
popularity = 0.1
add_to_variable = { var = party_pop_array^4 value = 0.1 }
add_to_variable = { var = party_pop_array^5 value = 0.1 }
}
 }

 }

#Focus for Rebuild Temple
focus = {
id = ISR_rebuildtemple
icon = monarchism2
x = 17
y = 7
cost = 10
available_if_capitulated = yes
prerequisite = { focus = ISR_empowerbattedin }
prerequisite = { focus = ISR_tehillim1375 }
ai_will_do = {
 factor = 10
 }
completion_reward = {
add_popularity= {
ideology = nationalist
popularity = 0.1
}
add_stability= 0.05
add_ideas = ISR_temple
 }

 }

#Focus for Frum State
focus = {
id = ISR_frumstate
icon = propaganda
x = 20
y = 5
cost = 10
available_if_capitulated = yes
prerequisite = { focus = ISR_empowerbattedin }
ai_will_do = {
 factor = 10
 }
completion_reward = {
swap_ideas= {
 remove_idea = judaism
add_idea = ISR_torah_judaism
}
 }

 }

#Focus for Hebrew University Yerushalayim
focus = {
id = ISR_hebrewuniversityyerushalayim
icon = research
x = 2
y = 4
cost = 10
available_if_capitulated = yes
prerequisite = { focus = ISR_weizmanninstitute }
ai_will_do = {
 factor = 10
 }
completion_reward = {
add_research_slot= 2
if = {
	limit = { has_idea = scientific_advances }
	swap_ideas = {
		add_idea = scientific_advances2
		remove_idea = scientific_advances
	}
	else = {
		add_ideas = scientific_advances
	}
}
 }

 }

 #Focus for Duvdevan Does Not Exist
 focus = {
 id = ISR_duvdevandoesnotexist
 icon = special_forces
 x = 22
 y = 2
 cost = 10
 available_if_capitulated = yes
 prerequisite = { focus = ISR_mandateintelligencesharing }
 ai_will_do = {
  factor = 3
  }
 completion_reward = {
 add_ideas= ISR_special_forces
  }

  }


 #Naval Reform
 focus = {
	 id = GENERIC_naval_reform
	 icon = navy

	 x = 32
	 y = 0

	 cost = 10

	 prerequisite = { }
	 mutually_exclusive = { }
	 available = { any_owned_state = { is_coastal = yes } }
	 historical_ai = { }
	 select_effect = { }
	 bypass = { }
	 cancel = { }

	 cancel_if_invalid = yes
	 continue_if_invalid = no
	 available_if_capitulated = no

	 complete_tooltip = { }
	 completion_reward = {
		 navy_experience = 15
	 }

	 ai_will_do = {
		 base = 10
	 }
 }
 focus = {
	 id = GENERIC_naval_bases
	 icon = navy2

	 x = -3
	 y = 1
	 relative_position_id = GENERIC_naval_reform

	 cost = 10

	 prerequisite = { focus = GENERIC_naval_reform }
	 mutually_exclusive = { }
	 available = { }
	 historical_ai = { }
	 select_effect = { }
	 bypass = { }
	 cancel = { }

	 cancel_if_invalid = yes
	 continue_if_invalid = no
	 available_if_capitulated = no

	 complete_tooltip = { }
	 completion_reward = {

	 }

	 ai_will_do = {
		 base = 10
	 }
 }
 focus = {
	 id = GENERIC_submarines
	 icon = submarines

	 x = -1
	 y = 1
	 relative_position_id = GENERIC_naval_reform

	 cost = 10

	 prerequisite = { focus = GENERIC_naval_reform }
	 mutually_exclusive = { }
	 available = { num_of_naval_factories > 3 }
	 historical_ai = { }
	 select_effect = { }
	 bypass = { }
	 cancel = { }

	 cancel_if_invalid = yes
	 continue_if_invalid = no
	 available_if_capitulated = no

	 complete_tooltip = { }
	 completion_reward = {
		 add_tech_bonus = {
			 uses = 2
			 bonus = 0.5
			 category = Cat_SUB
		 }
	 }

	 ai_will_do = {
		 base = 10
	 }
 }
 focus = {
	 id = GENERIC_surface_ships
	 icon = battleships2

	 x = 1
	 y = 1
	 relative_position_id = GENERIC_naval_reform

	 cost = 10

	 prerequisite = { focus = GENERIC_naval_reform }
	 mutually_exclusive = { }
	 available = { num_of_naval_factories > 3 }
	 historical_ai = { }
	 select_effect = { }
	 bypass = { }
	 cancel = { }

	 cancel_if_invalid = yes
	 continue_if_invalid = no
	 available_if_capitulated = no

	 complete_tooltip = { }
	 completion_reward = {
		 add_tech_bonus = {
			 uses = 2
			 bonus = 0.5
			 category = Cat_SURFACE_SHIP
		 }
	 }

	 ai_will_do = {
		 base = 10
	 }
 }
 focus = {
	 id = GENERIC_dockyards
	 icon = naval_dockyard

	 x = -4
	 y = 2
	 relative_position_id = GENERIC_naval_reform

	 cost = 10

	 prerequisite = { focus = GENERIC_naval_bases }
	 mutually_exclusive = { }
	 available = { }
	 historical_ai = { }
	 select_effect = { }
	 bypass = { }
	 cancel = { }

	 cancel_if_invalid = yes
	 continue_if_invalid = no
	 available_if_capitulated = no

	 complete_tooltip = { }
	 completion_reward = {
		 random_owned_state = {
			 limit = { is_coastal = yes }
			 add_extra_state_shared_building_slots = 1
			 add_building_construction = {
				 type = dockyard
				 level = 1
				 instant_build = yes
			 }
		 }
		 random_owned_state = {
			 limit = { is_coastal = yes }
			 add_extra_state_shared_building_slots = 1
			 add_building_construction = {
				 type = dockyard
				 level = 1
				 instant_build = yes
			 }
		 }
	 }

	 ai_will_do = {
		 base = 10
	 }
 }
 focus = {
	 id = GENERIC_nuclear_submarines
	 icon = wolfpacks

	 x = -2
	 y = 2
	 relative_position_id = GENERIC_naval_reform

	 cost = 10

	 prerequisite = { focus = GENERIC_submarines }
	 mutually_exclusive = { }
	 available = { num_of_naval_factories > 7 }
	 historical_ai = { }
	 select_effect = { }
	 bypass = { }
	 cancel = { }

	 cancel_if_invalid = yes
	 continue_if_invalid = no
	 available_if_capitulated = no

	 complete_tooltip = { }
	 completion_reward = {
		 add_tech_bonus = {
			 uses = 2
			 bonus = 0.5
			 category = Cat_NUKE_SUB
		 }
	 }

	 ai_will_do = {
		 base = 10
	 }
 }
 focus = {
	 id = GENERIC_naval_doctrine_innovations
	 icon = naval_doctrine

	 x = 0
	 y = 2
	 relative_position_id = GENERIC_naval_reform

	 cost = 10

	 prerequisite = { focus = GENERIC_naval_reform }
	 mutually_exclusive = { }
	 available = { }
	 historical_ai = { }
	 select_effect = { }
	 bypass = { }
	 cancel = { }

	 cancel_if_invalid = yes
	 continue_if_invalid = no
	 available_if_capitulated = no

	 complete_tooltip = { }
	 completion_reward = {
		 add_tech_bonus = {
			 uses = 1
			 bonus = 0.5
			 category = Cat_naval_doctrine
		 }
	 }

	 ai_will_do = {
		 base = 10
	 }
 }
 focus = {
	 id = GENERIC_aircraft_carriers
	 icon = carriers

	 x = 2
	 y = 2
	 relative_position_id = GENERIC_naval_reform

	 cost = 10

	 prerequisite = { focus = GENERIC_surface_ships }
	 prerequisite = { focus = GENERIC_fighter_planes }
	 mutually_exclusive = { }
	 available = { num_of_naval_factories > 5 }
	 historical_ai = { }
	 select_effect = { }
	 bypass = { }
	 cancel = { }

	 cancel_if_invalid = yes
	 continue_if_invalid = no
	 available_if_capitulated = no

	 complete_tooltip = { }
	 completion_reward = {
		 add_tech_bonus = {
			 uses = 2
			 bonus = 0.5
			 category = Cat_CARRIER
		 }
	 }

	 ai_will_do = {
		 base = 10
	 }
 }
 focus = {
	 id = GENERIC_naval_doctrine_expertise
	 icon = naval_doctrine

	 x = 0
	 y = 3
	 relative_position_id = GENERIC_naval_reform

	 cost = 10

	 prerequisite = { focus = GENERIC_naval_doctrine_innovations }
	 mutually_exclusive = { }
	 available = { }
	 historical_ai = { }
	 select_effect = { }
	 bypass = { }
	 cancel = { }

	 cancel_if_invalid = yes
	 continue_if_invalid = no
	 available_if_capitulated = no

	 complete_tooltip = { }
	 completion_reward = {
		 add_tech_bonus = {
			 uses = 2
			 bonus = 0.5
			 category = Cat_naval_doctrine
		 }
	 }

	 ai_will_do = {
		 base = 10
	 }
 }

 #Air Force Reform
 focus = {
	 id = GENERIC_air_force_reform
	 icon = air_force

	 x = 34
	 y = 0

	 cost = 10

	 prerequisite = { }
	 mutually_exclusive = { }
	 available = { }
	 historical_ai = { }
	 select_effect = { }
	 bypass = { }
	 cancel = { }

	 cancel_if_invalid = yes
	 continue_if_invalid = no
	 available_if_capitulated = no

	 complete_tooltip = { }
	 completion_reward = {
		 air_experience = 10
		 add_tech_bonus = {
			 uses = 1
			 bonus = 0.25
			 category = Cat_AIR_EQP
		 }
	 }

	 ai_will_do = {
		 base = 10
	 }
 }
 focus = {
	 id = GENERIC_fighter_planes
	 icon = fighters

	 x = -1
	 y = 1
	 relative_position_id = GENERIC_air_force_reform

	 cost = 10

	 prerequisite = { focus = GENERIC_air_force_reform }
	 mutually_exclusive = { }
	 available = { num_of_military_factories > 3 }
	 historical_ai = { }
	 select_effect = { }
	 bypass = { }
	 cancel = { }

	 cancel_if_invalid = yes
	 continue_if_invalid = no
	 available_if_capitulated = no

	 complete_tooltip = { }
	 completion_reward = {
		 add_tech_bonus = {
			 uses = 2
			 bonus = 0.5
			 category = CAT_FIXED_WING
		 }
	 }

	 ai_will_do = {
		 base = 10
	 }
 }
 focus = {
	 id = GENERIC_air_doctrine_innovations
	 icon = air_doctrine

	 x = 1
	 y = 1
	 relative_position_id = GENERIC_air_force_reform

	 cost = 10

	 prerequisite = {
		 focus = GENERIC_air_force_reform
		 focus = GENERIC_military_emergency
	 }
	 mutually_exclusive = { }
	 available = { }
	 historical_ai = { }
	 select_effect = { }
	 bypass = { }
	 cancel = { }

	 cancel_if_invalid = yes
	 continue_if_invalid = no
	 available_if_capitulated = no

	 complete_tooltip = { }
	 completion_reward = {
		 add_tech_bonus = {
			 uses = 1
			 bonus = 0.5
			 category = air_doctrine
		 }
	 }

	 ai_will_do = {
		 base = 10
	 }
 }
 focus = {
	 id = GENERIC_countermeasures_against_aircraft
	 icon = naval_bombers

	 x = 0
	 y = 2
	 relative_position_id = GENERIC_air_force_reform

	 cost = 10

	 prerequisite = {
		 focus = GENERIC_fighter_planes
		 focus = GENERIC_air_doctrine_innovations
	 }
	 mutually_exclusive = { }
	 available = { num_of_military_factories > 4 }
	 historical_ai = { }
	 select_effect = { }
	 bypass = { }
	 cancel = { }

	 cancel_if_invalid = yes
	 continue_if_invalid = no
	 available_if_capitulated = no

	 complete_tooltip = { }
	 completion_reward = {
		 add_tech_bonus = {
			 uses = 2
			 bonus = 0.5
			 category = Cat_AA
		 }
	 }

	 ai_will_do = {
		 base = 10
	 }
 }
 focus = {
	 id = GENERIC_bomber_planes
	 icon = bombers

	 x = -1
	 y = 3
	 relative_position_id = GENERIC_air_force_reform

	 cost = 10

	 prerequisite = {
		 focus = GENERIC_fighter_planes
	 }
	 mutually_exclusive = { }
	 available = { num_of_military_factories > 5 }
	 historical_ai = { }
	 select_effect = { }
	 bypass = { }
	 cancel = { }

	 cancel_if_invalid = yes
	 continue_if_invalid = no
	 available_if_capitulated = no

	 complete_tooltip = { }
	 completion_reward = {
		 add_tech_bonus = {
			 uses = 2
			 bonus = 0.5
			 category = Cat_STR_BOMBER
		 }
	 }

	 ai_will_do = {
		 base = 10
	 }
 }
 focus = {
	 id = GENERIC_drones
	 icon = fighters2

	 x = 1
	 y = 3
	 relative_position_id = GENERIC_air_force_reform

	 cost = 10

	 prerequisite = { focus = GENERIC_air_doctrine_innovations }
	 prerequisite = { focus = GENERIC_infantry_equipment_development }
	 mutually_exclusive = { }
	 available = { num_of_military_factories > 3 }
	 historical_ai = { }
	 select_effect = { }
	 bypass = { }
	 cancel = { }

	 cancel_if_invalid = yes
	 continue_if_invalid = no
	 available_if_capitulated = no

	 complete_tooltip = { }
	 completion_reward = {
		 add_tech_bonus = {
			 uses = 2
			 bonus = 0.5
			 category = Cat_L_DRONE
		 }
	 }

	 ai_will_do = {
		 base = 10
	 }
 }
 focus = {
	 id = GENERIC_air_doctrine_expertise
	 icon = air_doctrine

	 x = 0
	 y = 4
	 relative_position_id = GENERIC_air_force_reform

	 cost = 10

	 prerequisite = {
		 focus = GENERIC_countermeasures_against_aircraft
	 }
	 mutually_exclusive = { }
	 available = { }
	 historical_ai = { }
	 select_effect = { }
	 bypass = { }
	 cancel = { }

	 cancel_if_invalid = yes
	 continue_if_invalid = no
	 available_if_capitulated = no

	 complete_tooltip = { }
	 completion_reward = {
		 add_tech_bonus = {
			 uses = 2
			 bonus = 0.5
			 category = air_doctrine
		 }
	 }

	 ai_will_do = {
		 base = 10
	 }
 }

 #Army Reform
 focus = {
	 id = GENERIC_army_reform
	 icon = infantry_allies

	 x = 39


	 y = 0

	 cost = 10

	 prerequisite = { }
	 mutually_exclusive = { }
	 available = { }
	 historical_ai = { }
	 select_effect = { }
	 bypass = { }
	 cancel = { }

	 cancel_if_invalid = yes
	 continue_if_invalid = no
	 available_if_capitulated = no

	 complete_tooltip = { }
	 completion_reward = {
		 add_command_power = 10
	 }

	 ai_will_do = {
		 base = 10
	 }
 }
 focus = {
	 id = GENERIC_military_emergency
	 icon = tanks2

	 x = -3
	 y = 0
	 relative_position_id = GENERIC_army_reform

	 cost = 2

	 prerequisite = { }
	 mutually_exclusive = { }
	 available = {
		 OR = {
			 has_defensive_war = yes
			 surrender_progress > 0.05
		 }
	 }
	 historical_ai = { }
	 select_effect = { }
	 bypass = { }
	 cancel = { }

	 cancel_if_invalid = yes
	 continue_if_invalid = no
	 available_if_capitulated = yes

	 complete_tooltip = { }
	 completion_reward = {
		 army_experience = 20
		 air_experience = 20
	 }

	 ai_will_do = {
		 base = 10
	 }
 }
 focus = {
	 id = GENERIC_land_doctrine_innovations
	 icon = army_doctrine

	 x = -2
	 y = 1
	 relative_position_id = GENERIC_army_reform

	 cost = 10

	 prerequisite = {
		 focus = GENERIC_army_reform
		 focus = GENERIC_military_emergency
	 }
	 mutually_exclusive = { }
	 available = { }
	 historical_ai = { }
	 select_effect = { }
	 bypass = { }
	 cancel = { }

	 cancel_if_invalid = yes
	 continue_if_invalid = no
	 available_if_capitulated = no

	 complete_tooltip = { }
	 completion_reward = {
		 add_tech_bonus = {
			 uses = 2
			 bonus = 0.5
			 category = land_doctrine
		 }
	 }

	 ai_will_do = {
		 base = 10
	 }
 }
 focus = {
	 id = GENERIC_military_exercises
	 icon = army_reform

	 x = 0
	 y = 1
	 relative_position_id = GENERIC_army_reform

	 cost = 10

	 prerequisite = { focus = GENERIC_army_reform }
	 mutually_exclusive = { }
	 available = { }
	 historical_ai = { }
	 select_effect = { }
	 bypass = { }
	 cancel = { }

	 cancel_if_invalid = yes
	 continue_if_invalid = no
	 available_if_capitulated = no

	 complete_tooltip = { }
	 completion_reward = {
		 army_experience = 20
	 }

	 ai_will_do = {
		 base = 10
	 }
 }
 focus = {
	 id = GENERIC_military_education_reform
	 icon = recruitment

	 x = 2
	 y = 1
	 relative_position_id = GENERIC_army_reform

	 cost = 10

	 prerequisite = { focus = GENERIC_army_reform }
	 mutually_exclusive = { }
	 available = { }
	 historical_ai = { }
	 select_effect = { }
	 bypass = { }
	 cancel = { }

	 cancel_if_invalid = yes
	 continue_if_invalid = no
	 available_if_capitulated = no

	 complete_tooltip = { }
	 completion_reward = {
		 custom_effect_tooltip = "Allows you to change your OFFICER TRAINING law."
	 }

	 ai_will_do = {
		 base = 10
	 }
 }
 focus = {
	 id = GENERIC_infantry_equipment_development
	 icon = small_arms2

	 x = -3
	 y = 2
	 relative_position_id = GENERIC_army_reform

	 cost = 10

	 prerequisite = { focus = GENERIC_land_doctrine_innovations }
	 mutually_exclusive = { }
	 available = { num_of_military_factories > 2 }
	 historical_ai = { }
	 select_effect = { }
	 bypass = { }
	 cancel = { }

	 cancel_if_invalid = yes
	 continue_if_invalid = no
	 available_if_capitulated = no

	 complete_tooltip = { }
	 completion_reward = {
		 add_tech_bonus = {
			 uses = 2
			 bonus = 0.5
			 category = Cat_INF_WEP
		 }
	 }

	 ai_will_do = {
		 base = 10
	 }
 }
 focus = {
	 id = GENERIC_land_doctrine_expertise
	 icon = army_doctrine

	 x = -1
	 y = 2
	 relative_position_id = GENERIC_army_reform

	 cost = 10

	 prerequisite = { focus = GENERIC_land_doctrine_innovations }
	 mutually_exclusive = { }
	 available = { }
	 historical_ai = { }
	 select_effect = { }
	 bypass = { }
	 cancel = { }

	 cancel_if_invalid = yes
	 continue_if_invalid = no
	 available_if_capitulated = no

	 complete_tooltip = { }
	 completion_reward = {
		 add_tech_bonus = {
			 uses = 2
			 bonus = 0.5
			 category = land_doctrine
		 }
	 }

	 ai_will_do = {
		 base = 10
	 }
 }
 focus = {
	 id = GENERIC_artillery_experiments
	 icon = artillery

	 x = 1
	 y = 2
	 relative_position_id = GENERIC_army_reform

	 cost = 10

	 prerequisite = { focus = GENERIC_military_exercises }
	 mutually_exclusive = { }
	 available = { num_of_military_factories > 3 }
	 historical_ai = { }
	 select_effect = { }
	 bypass = { }
	 cancel = { }

	 cancel_if_invalid = yes
	 continue_if_invalid = no
	 available_if_capitulated = no

	 complete_tooltip = { }
	 completion_reward = {
		 add_tech_bonus = {
			 uses = 2
			 bonus = 0.5
			 category = Cat_ARTY
		 }
	 }

	 ai_will_do = {
		 base = 10
	 }
 }
 focus = {
	 id = GENERIC_uniform_improvements
	 icon = general_staff

	 x = -2
	 y = 3
	 relative_position_id = GENERIC_army_reform

	 cost = 10

	 prerequisite = { focus = GENERIC_infantry_equipment_development }
	 mutually_exclusive = { }
	 available = { }
	 historical_ai = { }
	 select_effect = { }
	 bypass = { }
	 cancel = { }

	 cancel_if_invalid = yes
	 continue_if_invalid = no
	 available_if_capitulated = no

	 complete_tooltip = { }
	 completion_reward = {
		 add_tech_bonus = {
			 uses = 2
			 bonus = 0.5
			 technology = body_armor_1980
			 technology = body_armor_2000
			 technology = body_armor_2010
			 technology = body_armor_2030
			 technology = camouflage
			 technology = camouflage2
			 technology = camouflage3
			 technology = camouflage4
			 technology = camouflage5
		 }
	 }

	 ai_will_do = {
		 base = 10
	 }
 }
 focus = {
	 id = GENERIC_self_propelled_artillery
	 icon = combined_arms

	 x = 0
	 y = 3
	 relative_position_id = GENERIC_army_reform

	 cost = 10

	 prerequisite = { focus = GENERIC_land_doctrine_expertise }
	 prerequisite = { focus = GENERIC_artillery_experiments }
	 mutually_exclusive = { }
	 available = { num_of_military_factories > 4 }
	 historical_ai = { }
	 select_effect = { }
	 bypass = { }
	 cancel = { }

	 cancel_if_invalid = yes
	 continue_if_invalid = no
	 available_if_capitulated = no

	 complete_tooltip = { }
	 completion_reward = {
		 add_tech_bonus = {
			 uses = 2
			 bonus = 0.5
			 category = Cat_SP_R_ARTY
		 }
	 }

	 ai_will_do = {
		 base = 10
	 }
 }
 focus = {
	 id = GENERIC_develop_armor_prototypes
	 icon = tanks4

	 x = 2
	 y = 3
	 relative_position_id = GENERIC_army_reform

	 cost = 10

	 prerequisite = { focus = GENERIC_artillery_experiments }
	 mutually_exclusive = { }
	 available = { num_of_military_factories > 5 }
	 historical_ai = { }
	 select_effect = { }
	 bypass = { }
	 cancel = { }

	 cancel_if_invalid = yes
	 continue_if_invalid = no
	 available_if_capitulated = no

	 complete_tooltip = { }
	 completion_reward = {
		 add_tech_bonus = {
			 uses = 2
			 bonus = 0.5
			 category = Cat_ARMOR
		 }
	 }

	 ai_will_do = {
		 base = 10
	 }
 }
 focus = {
	 id = GENERIC_countermeasures_against_armored_units
	 icon = tanks3

	 x = 2
	 y = 4
	 relative_position_id = GENERIC_army_reform

	 cost = 10

	 prerequisite = { focus = GENERIC_develop_armor_prototypes }
	 mutually_exclusive = { }
	 available = { num_of_military_factories > 5 }
	 historical_ai = { }
	 select_effect = { }
	 bypass = { }
	 cancel = { }

	 cancel_if_invalid = yes
	 continue_if_invalid = no
	 available_if_capitulated = no

	 complete_tooltip = { }
	 completion_reward = {
		 add_tech_bonus = {
			 uses = 2
			 bonus = 0.5
			 category = Cat_AT
		 }
	 }

	 ai_will_do = {
		 base = 10
	 }
 }
 #Focus for Stabilize Palestinian Authority
 focus = {
 id = ISR_stabilizepalestinianauthority
 icon = gunpoint_diplomacy
 x = 13
 y = 5
 cost = 10
 available_if_capitulated = yes
 prerequisite = { focus = ISR_provokeintifada }
 mutually_exclusive = { focus = ISR_annexpalestine }
 ai_will_do = {
  factor = 1
  }
 completion_reward = {
 create_wargoal= {
 type = puppet_wargoal_focus
 target = PLA
 }
  }

  }

 #Focus for Relax Immigration Requirements
 focus = {
 id = ISR_relaximmigrationrequirements
 icon = industry_democratic
 x = 11
 y = 4
 cost = 10
 available_if_capitulated = yes
 prerequisite = { focus = ISR_charedirelocation focus = ISR_enforcethegreenline }
 mutually_exclusive = { focus = ISR_embracekhazarconspiracy }
 ai_will_do = {
  factor = 1
  }
 completion_reward = {
 random_owned_controlled_state={
  limit = {
  free_building_slots = {
  building = industrial_complex
  size > 0
  include_locked = yes
  }

  }

  add_extra_state_shared_building_slots = 2
  add_building_construction = {
  type = industrial_complex
  level = 2
  instant_build = yes
  }
  }
  }

  }

 #Focus for Embrace Khazar Conspiracy
 focus = {
 id = ISR_embracekhazarconspiracy
 icon = GFX_goal_unknown
 x = 7
 y = 4
 cost = 10
 available_if_capitulated = yes
 prerequisite = { focus = ISR_charedirelocation }
 mutually_exclusive = { focus = ISR_relaximmigrationrequirements }
 ai_will_do = {
  factor = 0
  }
 completion_reward = {
 set_stability= 0
  }

  }

 #Focus for Our Bad
 focus = {
 id = ISR_ourbad
 icon = nazism
 x = 7
 y = 5
 cost = 10
 available_if_capitulated = yes
 prerequisite = { focus = ISR_embracekhazarconspiracy }
 ai_will_do = {
  factor = 0
  }
 completion_reward = {
 PAL = {
 annex_country= {
  target = ISR
 }
 }
  }

  }
  #Focus for Expand Iron Dome System
  focus = {
  id = ISR_expandirondomesystem
  icon = air_defense
  x = 26
  y = 2
  cost = 10
  available_if_capitulated = yes
  prerequisite = { focus = ISR_irondomesystem }
  ai_will_do = {
   factor = 2
   }
  completion_reward = {
  random_owned_controlled_state={
   limit = {
   free_building_slots = {
   building = anti_air_building
   size > 0
   include_locked = yes
   }

   }

   add_extra_state_shared_building_slots = 1
   add_building_construction = {
   type = anti_air_building
   level = 1
   instant_build = yes
   }
   }

  random_owned_controlled_state={
   limit = {
   free_building_slots = {
   building = anti_air_building
   size > 0
   include_locked = yes
   }

   }

   add_extra_state_shared_building_slots = 1
   add_building_construction = {
   type = anti_air_building
   level = 1
   instant_build = yes
   }
   }

  random_owned_controlled_state={
   limit = {
   free_building_slots = {
   building = anti_air_building
   size > 0
   include_locked = yes
   }

   }

   add_extra_state_shared_building_slots = 1
   add_building_construction = {
   type = anti_air_building
   level = 1
   instant_build = yes
   }
   }
   }

   }

  #Focus for Reshuffle Mossadi Leadership
  focus = {
  id = ISR_reshufflemossadileadership
  icon = espionage
  x = 24
  y = 0
  cost = 10
  available_if_capitulated = yes
  ai_will_do = {
   factor = 2
   }
  completion_reward = {
  random_owned_state = {
  				limit = { free_building_slots = { building = radar_station size > 0 include_locked = no } }
  				add_building_construction = {
  					type = radar_station
  					level = 1
  					instant_build = yes
  				}
  			}
  			random_owned_state = {
  				limit = { free_building_slots = { building = radar_station size > 0 include_locked = no } }
  				add_building_construction = {
  					type = radar_station
  					level = 1
  					instant_build = yes
  				}
  			}
   }

   }

  #Focus for Iron Dome System
  focus = {
  id = ISR_irondomesystem
  icon = air_defense
  x = 26
  y = 1
  cost = 10
  available_if_capitulated = yes
  prerequisite = { focus = ISR_reshufflemossadileadership }
  ai_will_do = {
   factor = 2
   }
  completion_reward = {
  random_owned_controlled_state={
   limit = {
   free_building_slots = {
   building = anti_air_building
   size > 0
   include_locked = yes
   }

   }

   add_extra_state_shared_building_slots = 1
   add_building_construction = {
   type = anti_air_building
   level = 1
   instant_build = yes
   }
   }

  random_owned_controlled_state={
   limit = {
   free_building_slots = {
   building = anti_air_building
   size > 0
   include_locked = yes
   }

   }

   add_extra_state_shared_building_slots = 1
   add_building_construction = {
   type = anti_air_building
   level = 1
   instant_build = yes
   }
   }

  random_owned_controlled_state={
   limit = {
   free_building_slots = {
   building = anti_air_building
   size > 0
   include_locked = yes
   }

   }

   add_extra_state_shared_building_slots = 1
   add_building_construction = {
   type = anti_air_building
   level = 1
   instant_build = yes
   }
   }
   }

   }

  #Focus for Mandate Intelligence Sharing
  focus = {
  id = ISR_mandateintelligencesharing
  icon = intelligence_exchange
  x = 22
  y = 1
  cost = 10
  available_if_capitulated = yes
  prerequisite = { focus = ISR_reshufflemossadileadership }
  ai_will_do = {
   factor = 2
   }
  completion_reward = {
  random_owned_state = {
  				limit = { free_building_slots = { building = radar_station size > 0 include_locked = no } }
  				add_building_construction = {
  					type = radar_station
  					level = 1
  					instant_build = yes
  				}
  			}
  			random_owned_state = {
  				limit = { free_building_slots = { building = radar_station size > 0 include_locked = no } }
  				add_building_construction = {
  					type = radar_station
  					level = 1
  					instant_build = yes
  				}
  			}
   }

   }
   #Focus for Angel of Death 2.0
   focus = {
   id = ISR_angelofdeath20
   icon = ultimatum
   x = 13
   y = 7
   cost = 10
   available_if_capitulated = yes
   prerequisite = { focus = ISR_tehillim1375 }
   ai_will_do = {
    factor = 2
    }
   completion_reward = {
   create_wargoal= {
   type = annex_everything
   target = EGY
   }
    }

    }
    #Focus for Preemptive Defense Against Syrian Aggression
    focus = {
    id = ISR_preemptivedefenseagainstsyrianaggression
    icon = political_pressure
    x = 11
    y = 7
    cost = 10
    available_if_capitulated = yes
    prerequisite = { focus = ISR_tehillim1375 }
    ai_will_do = {
     factor = 2
     }
    completion_reward = {
    create_wargoal= {
    type = annex_everything
    target = SYR
    }
     }

     }
     #Purple Is the Warmest Color
     focus = {
     id = ISR_purpleisthewarmestcolor
     icon = political_pressure_blue
     x = 9
     y = 7
     cost = 10
     available_if_capitulated = yes
     prerequisite = { focus = ISR_tehillim1375 }
     ai_will_do = {
      factor = 2
      }
     completion_reward = {
     create_wargoal= {
     type = annex_everything
     target = LEB
     }
     create_wargoal= {
     type = annex_everything
     target = HEZ
     }
      }

      }
      #Focus for Ba'ath House Blues
      focus = {
      id = ISR_baathhouseblues
      icon = ultimatum2
      x = 11
      y = 8
      cost = 10
      available_if_capitulated = yes
      prerequisite = { focus = ISR_preemptivedefenseagainstsyrianaggression}
      ai_will_do = {
       factor = 2
       }
      completion_reward = {
      create_wargoal= {
      type = annex_everything
      target = IRQ
      }
       }

       }
       #Focus for Kalimi Revenge
       focus = {
       id = ISR_kalimirevenge
       icon = ultimatum2
       x = 11
       y = 9
       cost = 10
       available_if_capitulated = yes
       prerequisite = { focus = ISR_baathhouseblues}
       ai_will_do = {
        factor = 2
        }
       completion_reward = {
       create_wargoal= {
       type = annex_everything
       target = PER
       }
        }

        }
        #Focus for Update Ulpanim Methods
        focus = {
        id = ISR_updateulpanimmethods
        icon = communist_scientists
        x = 11
        y = 5
        cost = 10
        available_if_capitulated = yes
        prerequisite = { focus = ISR_relaximmigrationrequirements }
        mutually_exclusive = { }
        ai_will_do = {
         factor = 1
         }
        completion_reward = {
        add_stability = 0.10
         }

         }
         #Focus for Subsidize Kibbutz Growth
         focus = {
         id = ISR_subsidizekubbutzgrowth
         icon = communism5
         x = 9
         y = 5
         cost = 10
         available_if_capitulated = yes
         prerequisite = { focus = ISR_relaximmigrationrequirements }
         mutually_exclusive = { }
         ai_will_do = {
          factor = 1
          }
         completion_reward = {
add_political_power= 150
add_popularity= {
ideology = communism
popularity = 0.1
add_to_variable = { var = party_pop_array^4 value = 0.1 }
add_to_variable = { var = party_pop_array^5 value = 0.1 }
}
            }

          }
          #Collectivize Strategic Industries
          focus = {
          id = ISR_collectivizestrategicindustries
          icon = industry_communism
          x = 9
          y = 6
          cost = 10
          available_if_capitulated = yes
          prerequisite = { focus = ISR_subsidizekubbutzgrowth }
          mutually_exclusive = { }
          ai_will_do = {
           factor = 1
           }
          completion_reward = {
          random_owned_controlled_state={
           limit = {
           free_building_slots = {
           building = industrial_complex
           size > 0
           include_locked = yes
           }
           }
           add_extra_state_shared_building_slots = 1
           add_building_construction = {
           type = industrial_complex
           level = 1
           instant_build = yes
           }
           }
           random_owned_controlled_state={
            limit = {
            free_building_slots = {
            building = arms_factory
            size > 0
            include_locked = yes
            }
            }
            add_extra_state_shared_building_slots = 1
            add_building_construction = {
            type = arms_factory
            level = 1
            instant_build = yes
            }
            }
          }
          }
#Focus for The Language of Creation
          focus = {
          id = ISR_thelanguageofcreation
          icon = continuous_increase_nu
          x = 11
          y = 6
          cost = 10
          available_if_capitulated = yes
          prerequisite = { focus = ISR_updateulpanimmethods }
          mutually_exclusive = { }
          ai_will_do = {
           factor = 2
           }
          completion_reward = {
          add_ideas= ISR_newnewjews
           }

           }
#Focus for Ahavat Chesed
                     focus = {
                     id = ISR_ahavatchesed
                     icon = concessions
                     x = 13
                     y = 6
                     cost = 10
                     available_if_capitulated = yes
                     prerequisite = { focus = ISR_updateulpanimmethods }
                     mutually_exclusive = { }
                     ai_will_do = {
                      factor = 2
                      }
                     completion_reward = {
                     add_ideas= ISR_chesed
                      }

                      }

#Focus for Enhanced Birthright Leader Training
                      focus = {
                      id = ISR_enhancedbirthrightleadertraining
                      icon = espionage2
                      x = 24
                      y = 1
                      cost = 10
                      available_if_capitulated = yes
                      prerequisite = { focus = ISR_reshufflemossadileadership }
                      ai_will_do = {
                       factor = 2
                       }
                      completion_reward = {
                      if = { limit = { NOT = { has_war_with = USA } }
                				USA = {
                					add_opinion_modifier = {
                						target = ISR
                						modifier = diplomatic_proximity
                					}
                				}
                			}
                			if = { limit = { NOT = { has_war_with = FRA } }
                				FRA = {
                					add_opinion_modifier = {
                						target = ISR
                						modifier = diplomatic_proximity
                					}
                				}
                			}
                			if = { limit = { NOT = { has_war_with = CAN } }
                				CAN = {
                					add_opinion_modifier = {
                						target = ISR
                						modifier = diplomatic_proximity
                					}
                          }
                          }
                      }
                      }
                      #Focus for Sexy Tzniut Leadership Standards
                                            focus = {
                                            id = ISR_sexytzniutleadershipstandards
                                            icon = islam_hijab
                                            x = 24
                                            y = 2
                                            cost = 10
                                            available_if_capitulated = yes
                                            prerequisite = { focus = ISR_enhancedbirthrightleadertraining }
                                            ai_will_do = {
                                             factor = 2
                                             }
                                            completion_reward = {
                                            add_ideas= ISR_sexytzniut
                                            }
                                            }

#End of focuses
 }
